1. Summary
Meeting title	LEX Workshop
Attended participants	8
Start time	5/31/22, 9:52:07 AM
End time	5/31/22, 11:44:48 AM
Meeting duration	1h 52m 41s
Average attendance time	1h 44m 40s

2. Participants
Name	First join	Last leave	In-meeting duration	Email	Participant ID (UPN)	Role
Martin Gonzalez Torrilla	5/31/22, 9:52:12 AM	5/31/22, 11:43:32 AM	1h 51m 20s	Martin.Gonzalez@jala-foundation.org	Martin.Gonzalez@jala-foundation.org	Presenter
Luis Becerra Vazquez	5/31/22, 9:56:26 AM	5/31/22, 11:44:22 AM	1h 47m 55s	Luis.Becerra@jala-foundation.org	Luis.Becerra@jala-foundation.org	Presenter
Kevin Cardenas Rodriguez	5/31/22, 9:59:00 AM	5/31/22, 11:44:24 AM	1h 45m 23s	Kevin.Cardenas@jala-foundation.org	Kevin.Cardenas@jala-foundation.org	Presenter
Maria Marquina Guevara	5/31/22, 10:00:22 AM	5/31/22, 11:44:27 AM	1h 44m 5s	Maria.Marquina@fundacion-jala.org	Maria.Marquina@fundacion-jala.org	Organizer
Martin Pavesio Sabini	5/31/22, 10:01:54 AM	5/31/22, 11:44:48 AM	1h 42m 54s	Martin.Pavesio@jala-foundation.org	Martin.Pavesio@jala-foundation.org	Presenter
Joaquin Aman Alvarez	5/31/22, 10:01:57 AM	5/31/22, 11:43:29 AM	1h 41m 31s	Joaquin.Aman@jala-foundation.org	Joaquin.Aman@jala-foundation.org	Presenter
Leonardo Villalba Ferrer	5/31/22, 10:02:06 AM	5/31/22, 11:44:18 AM	1h 42m 11s	Leonardo.Villalba@jala-foundation.org	Leonardo.Villalba@jala-foundation.org	Presenter
Cesar Illanes Argote	5/31/22, 10:02:25 AM	5/31/22, 11:44:26 AM	1h 42m	Cesar.Illanes@jala-foundation.org	Cesar.Illanes@jala-foundation.org	Presenter

3. In-Meeting activities
Name	Join time	Leave time	Duration	Email	Role
Martin Gonzalez Torrilla	5/31/22, 9:52:12 AM	5/31/22, 11:43:32 AM	1h 51m 20s	Martin.Gonzalez@jala-foundation.org	Presenter
Luis Becerra Vazquez	5/31/22, 9:56:26 AM	5/31/22, 11:44:22 AM	1h 47m 55s	Luis.Becerra@jala-foundation.org	Presenter
Kevin Cardenas Rodriguez	5/31/22, 9:59:00 AM	5/31/22, 11:44:24 AM	1h 45m 23s	Kevin.Cardenas@jala-foundation.org	Presenter
Maria Marquina Guevara	5/31/22, 10:00:22 AM	5/31/22, 11:44:27 AM	1h 44m 5s	Maria.Marquina@fundacion-jala.org	Organizer
Martin Pavesio Sabini	5/31/22, 10:01:54 AM	5/31/22, 11:44:48 AM	1h 42m 54s	Martin.Pavesio@jala-foundation.org	Presenter
Joaquin Aman Alvarez	5/31/22, 10:01:57 AM	5/31/22, 11:43:29 AM	1h 41m 31s	Joaquin.Aman@jala-foundation.org	Presenter
Leonardo Villalba Ferrer	5/31/22, 10:02:06 AM	5/31/22, 11:44:18 AM	1h 42m 11s	Leonardo.Villalba@jala-foundation.org	Presenter
Cesar Illanes Argote	5/31/22, 10:02:25 AM	5/31/22, 11:44:26 AM	1h 42m	Cesar.Illanes@jala-foundation.org	Presenter
