1. Summary
Meeting title	Python Training [week 6] - [week 13]
Attended participants	17
Start time	11/21/22, 4:50:39 PM
End time	11/21/22, 6:08:01 PM
Meeting duration	1h 17m 22s
Average attendance time	1h 11m 18s

2. Participants
Name	First join	Last leave	In-meeting duration	Email	Participant ID (UPN)	Role
Andre Arroyo Hinojosa	11/21/22, 4:50:45 PM	11/21/22, 6:07:57 PM	1h 17m 12s	Andre.Arroyo@jala.university	Andre.Arroyo@jala.university	Presenter
Diego Alarcon Inturias	11/21/22, 4:50:55 PM	11/21/22, 6:07:44 PM	1h 16m 48s	Diego.Alarcon@jala.university	Diego.Alarcon@jala.university	Presenter
Miguel Pozo Morales	11/21/22, 4:50:56 PM	11/21/22, 6:07:45 PM	1h 16m 48s	Miguel.Pozo@jala.university	Miguel.Pozo@jala.university	Presenter
Sebastian Arbelaez Meneses	11/21/22, 4:51:02 PM	11/21/22, 6:07:46 PM	1h 16m 44s	Sebastian.Arbelaez@jala.university	Sebastian.Arbelaez@jala.university	Presenter
Jose Mendoza Antonio	11/21/22, 4:53:10 PM	11/21/22, 6:07:48 PM	1h 14m 37s	Jose.Mendoza@jala.university	Jose.Mendoza@jala.university	Presenter
Rodrigo Morales Rivas	11/21/22, 4:54:20 PM	11/21/22, 6:07:48 PM	1h 13m 27s	Rodrigo.Morales@jala.university	Rodrigo.Morales@jala.university	Presenter
Diego Quisbert Gutierrez	11/21/22, 4:56:10 PM	11/21/22, 6:07:43 PM	1h 11m 32s	Diego.Quisbert@jala.university	Diego.Quisbert@jala.university	Presenter
Kevin Butvilofsky	11/21/22, 4:56:55 PM	11/21/22, 6:07:44 PM	1h 10m 48s	Kevin.Butvilofsky@jala.university	Kevin.Butvilofsky@jala.university	Presenter
Brayan Vasquez Rojas	11/21/22, 4:57:36 PM	11/21/22, 6:07:48 PM	1h 10m 11s	Brayan.Vasquez@jala.university	Brayan.Vasquez@jala.university	Presenter
Alejandra Maldonado	11/21/22, 4:58:12 PM	11/21/22, 6:07:54 PM	1h 9m 42s	Alejandra.Maldonado@jala.university	Alejandra.Maldonado@jala.university	Presenter
Israel Zurita Sanchez	11/21/22, 4:58:26 PM	11/21/22, 6:07:43 PM	1h 9m 17s	Israel.Zurita@jala.university	Israel.Zurita@jala.university	Presenter
Maria Marquina Guevara	11/21/22, 4:59:12 PM	11/21/22, 6:07:43 PM	1h 8m 30s	Maria.Marquina@jala.university	Maria.Marquina@jala.university	Organizer
Renan Boaventura	11/21/22, 4:59:15 PM	11/21/22, 6:08:01 PM	1h 8m 45s	Renan.Boaventura@jala.university	Renan.Boaventura@jala.university	Presenter
Miguel Paricahua Lopez	11/21/22, 4:59:22 PM	11/21/22, 6:07:50 PM	1h 8m 28s	Miguel.Paricahua@jala.university	Miguel.Paricahua@jala.university	Presenter
Ivan Gonzalez de la Torre	11/21/22, 5:00:12 PM	11/21/22, 6:07:32 PM	1h 7m 20s	Ivan.Gonzalez@jala.university	Ivan.Gonzalez@jala.university	Presenter
Dayana Hernandez Aquize	11/21/22, 5:01:49 PM	11/21/22, 6:07:49 PM	1h 6m	Dayana.Hernandez@jala.university	Dayana.Hernandez@jala.university	Presenter
Alex Perez Castillo	11/21/22, 5:02:00 PM	11/21/22, 6:07:53 PM	1h 5m 53s	Alex.Perez@jala.university	Alex.Perez@jala.university	Presenter

3. In-Meeting activities
Name	Join time	Leave time	Duration	Email	Role
Andre Arroyo Hinojosa	11/21/22, 4:50:45 PM	11/21/22, 6:07:57 PM	1h 17m 12s	Andre.Arroyo@jala.university	Presenter
Diego Alarcon Inturias	11/21/22, 4:50:55 PM	11/21/22, 6:07:44 PM	1h 16m 48s	Diego.Alarcon@jala.university	Presenter
Miguel Pozo Morales	11/21/22, 4:50:56 PM	11/21/22, 6:07:45 PM	1h 16m 48s	Miguel.Pozo@jala.university	Presenter
Sebastian Arbelaez Meneses	11/21/22, 4:51:02 PM	11/21/22, 6:07:46 PM	1h 16m 44s	Sebastian.Arbelaez@jala.university	Presenter
Jose Mendoza Antonio	11/21/22, 4:53:10 PM	11/21/22, 6:07:48 PM	1h 14m 37s	Jose.Mendoza@jala.university	Presenter
Rodrigo Morales Rivas	11/21/22, 4:54:20 PM	11/21/22, 6:07:48 PM	1h 13m 27s	Rodrigo.Morales@jala.university	Presenter
Diego Quisbert Gutierrez	11/21/22, 4:56:10 PM	11/21/22, 6:07:43 PM	1h 11m 32s	Diego.Quisbert@jala.university	Presenter
Kevin Butvilofsky	11/21/22, 4:56:55 PM	11/21/22, 6:07:44 PM	1h 10m 48s	Kevin.Butvilofsky@jala.university	Presenter
Brayan Vasquez Rojas	11/21/22, 4:57:36 PM	11/21/22, 6:07:48 PM	1h 10m 11s	Brayan.Vasquez@jala.university	Presenter
Alejandra Maldonado	11/21/22, 4:58:12 PM	11/21/22, 6:07:54 PM	1h 9m 42s	Alejandra.Maldonado@jala.university	Presenter
Israel Zurita Sanchez	11/21/22, 4:58:26 PM	11/21/22, 6:07:43 PM	1h 9m 17s	Israel.Zurita@jala.university	Presenter
Maria Marquina Guevara	11/21/22, 4:59:12 PM	11/21/22, 6:07:43 PM	1h 8m 30s	Maria.Marquina@jala.university	Organizer
Renan Boaventura	11/21/22, 4:59:15 PM	11/21/22, 6:08:01 PM	1h 8m 45s	Renan.Boaventura@jala.university	Presenter
Miguel Paricahua Lopez	11/21/22, 4:59:22 PM	11/21/22, 6:07:50 PM	1h 8m 28s	Miguel.Paricahua@jala.university	Presenter
Ivan Gonzalez de la Torre	11/21/22, 5:00:12 PM	11/21/22, 6:07:32 PM	1h 7m 20s	Ivan.Gonzalez@jala.university	Presenter
Dayana Hernandez Aquize	11/21/22, 5:01:49 PM	11/21/22, 6:07:49 PM	1h 6m	Dayana.Hernandez@jala.university	Presenter
Alex Perez Castillo	11/21/22, 5:02:00 PM	11/21/22, 6:07:53 PM	1h 5m 53s	Alex.Perez@jala.university	Presenter
