1. Summary
Meeting title	Python training
Attended participants	8
Start time	9/21/22, 11:57:24 AM
End time	9/21/22, 1:09:06 PM
Meeting duration	1h 11m 42s
Average attendance time	1h 3m 53s

2. Participants
Name	First join	Last leave	In-meeting duration	Email	Participant ID (UPN)	Role
Diego Jauregui Salvatierra	9/21/22, 11:57:29 AM	9/21/22, 1:08:56 PM	1h 11m 27s	Diego.Jauregui@jala.university	Diego.Jauregui@jala.university	Presenter
Adrian Clavijo Lopez	9/21/22, 11:59:02 AM	9/21/22, 1:08:59 PM	1h 9m 56s	Adrian.Clavijo@jala.university	Adrian.Clavijo@jala.university	Presenter
Jesus Vallecilla Solano	9/21/22, 12:00:31 PM	9/21/22, 1:09:01 PM	1h 8m 29s	Jesus.Vallecilla@jala.university	Jesus.Vallecilla@jala.university	Presenter
Sergio Mallea Morales	9/21/22, 12:02:11 PM	9/21/22, 1:09:04 PM	1h 6m 53s	Sergio.Mallea@jala.university	Sergio.Mallea@jala.university	Presenter
Camilo Villalba Sanz	9/21/22, 12:02:47 PM	9/21/22, 1:09:06 PM	1h 6m 18s	Camilo.Villalba@jala.university	Camilo.Villalba@jala.university	Presenter
Martin Ferreyra	9/21/22, 12:02:52 PM	9/21/22, 1:09:02 PM	1h 6m 9s	Martin.Ferreyra@jala.university	Martin.Ferreyra@jala.university	Presenter
Jason Pineda Serna	9/21/22, 12:03:53 PM	9/21/22, 1:09:02 PM	1h 5m 9s	Jason.Pineda@jala.university	Jason.Pineda@jala.university	Presenter
Andres Galvis Bolivar	9/21/22, 12:32:10 PM	9/21/22, 1:08:51 PM	36m 40s	Andres.Galvis@jala.university	Andres.Galvis@jala.university	Presenter

3. In-Meeting activities
Name	Join time	Leave time	Duration	Email	Role
Diego Jauregui Salvatierra	9/21/22, 11:57:29 AM	9/21/22, 1:08:56 PM	1h 11m 27s	Diego.Jauregui@jala.university	Presenter
Adrian Clavijo Lopez	9/21/22, 11:59:02 AM	9/21/22, 1:08:59 PM	1h 9m 56s	Adrian.Clavijo@jala.university	Presenter
Jesus Vallecilla Solano	9/21/22, 12:00:31 PM	9/21/22, 1:09:01 PM	1h 8m 29s	Jesus.Vallecilla@jala.university	Presenter
Sergio Mallea Morales	9/21/22, 12:02:11 PM	9/21/22, 1:09:04 PM	1h 6m 53s	Sergio.Mallea@jala.university	Presenter
Camilo Villalba Sanz	9/21/22, 12:02:47 PM	9/21/22, 1:09:06 PM	1h 6m 18s	Camilo.Villalba@jala.university	Presenter
Martin Ferreyra	9/21/22, 12:02:52 PM	9/21/22, 1:09:02 PM	1h 6m 9s	Martin.Ferreyra@jala.university	Presenter
Jason Pineda Serna	9/21/22, 12:03:53 PM	9/21/22, 1:09:02 PM	1h 5m 9s	Jason.Pineda@jala.university	Presenter
Andres Galvis Bolivar	9/21/22, 12:32:10 PM	9/21/22, 1:08:51 PM	36m 40s	Andres.Galvis@jala.university	Presenter
